product_number,size,season,erp_product_id
915834, 50,144,000009158340050144
920675, 40,144,000009206750040144
920675, 44,144,000009206750044144
939949, 32,142,000009399490032140
939949, 36,142,000009399490036140
939949, 40,142,000009399490040140
939949, 44,142,000009399490044140
919626, 52,144,000009196260052142
919626, 56,144,000009196260056142
919626, 60,144,000009196260060142
919626, 64,144,000009196260064142
919626, 68,144,000009196260068142
913251, 36,143,000009132510036141
913251, 40,143,000009132510040141
913251, 44,143,000009132510044141
913251, 48,143,000009132510048141
913251, 52,143,000009132510052141
927293, 48,143,000009272930048143
951744,  4,141,000009517440004134
951744,  2,141,000009517440002134
940282, 32,144,000009402820032144
940282, 36,144,000009402820036144
940282, 40,144,000009402820040144
940282, 44,144,000009402820044144
940282, 48,144,000009402820048144
940282, 52,144,000009402820052144
923394, 52,144,000009233940052142
923394, 56,144,000009233940056142
923394, 36,144,000009233940036142
923394, 40,144,000009233940040142
923394, 44,144,000009233940044142
923394, 48,144,000009233940048142
927454, 36,142,000009274540036142
927454, 38,142,000009274540038142
927454, 40,142,000009274540040142
927454, 42,142,000009274540042142
927454, 44,142,000009274540044142
927454, 46,142,000009274540046142
927454, 50,142,000009274540050142
903816, 38,143,000009038160038143
903816, 40,143,000009038160040143
903816, 42,143,000009038160042143
924521, 38,144,000009245210038144
924521, 42,144,000009245210042144
924521, 46,144,000009245210046144
924521, 50,144,000009245210050144
939124, 46,144,000009391240046144
939124, 50,144,000009391240050144
926236,  0,144,000009262360000144
932885, 37,143,000009328850037141
932885, 38,143,000009328850038141
932885, 39,143,000009328850039141
932885, 41,143,000009328850041141
932885, 42,143,000009328850042141
939124, 42,144,000009391240042144
935040,  2,141,000009350400002129
923998, 48,143,000009239980048143
923998, 52,143,000009239980052143
923998, 56,143,000009239980056143
939688, 40,143,000009396880040143
939688, 44,143,000009396880044143
939688, 48,143,000009396880048143
925164,152,144,000009251640152142
925164,164,144,000009251640164142
925164,176,144,000009251640176142
925164,128,144,000009251640128142
925164,140,144,000009251640140142
915662,  4,142,000009156620004142
923509, 38,143,000009235090038143
923509, 42,143,000009235090042143
939993,  1,144,000009399930001144
932595,  2,142,000009325950002142
932595,  3,142,000009325950003142
909553, 48,143,000009095530048143
909553, 52,143,000009095530052143
916680, 36,143,000009166800036142
916680, 40,143,000009166800040142
916680, 44,143,000009166800044142
916680, 48,143,000009166800048142
916680, 52,143,000009166800052142
951744,  3,141,000009517440003134
913820, 40,143,000009138200040143
913820, 44,143,000009138200044143
913820, 48,143,000009138200048143
910781,  3,141,000009107810003135
918034,  3,141,000009180340003135
918034,  4,141,000009180340004135
918034,  5,141,000009180340005135
906987,  1,144,000009069870001140
906987,  2,144,000009069870002140
954572,  2,141,000009545720002133
954572,  4,141,000009545720004133
952318,  4,143,000009523180004135
952318,  2,143,000009523180002135
967506,  1,141,000009675060001135
967506,  2,141,000009675060002135
967506,  3,141,000009675060003135
967506,  4,141,000009675060004135
929314, 38,141,000009293140038141
929314, 42,141,000009293140042141
929314, 46,141,000009293140046141
933811, 39,144,000009338110039144
929314, 50,141,000009293140050141
929314, 52,141,000009293140052141
929314, 54,141,000009293140054141
914052,  0,143,000009140520000142
949144, 32,143,000009491440032143
949144, 36,143,000009491440036143
949144, 40,143,000009491440040143
949144, 44,143,000009491440044143
949144, 48,143,000009491440048143
933422, 32,143,000009334220032135
931534, 35,143,000009315340035143
931534, 39,143,000009315340039143
944337, 36,144,000009443370036144
944337, 40,144,000009443370040144
944337, 44,144,000009443370044144
944337, 48,144,000009443370048144
907853,104,143,000009078530104143
907853,116,143,000009078530116143
907853,128,143,000009078530128143
907853,140,143,000009078530140143
907853,152,143,000009078530152143
907853,164,143,000009078530164143
905606, 46,142,000009056060046142
905606, 34,142,000009056060034142
905606, 38,142,000009056060038142
905606, 42,142,000009056060042142
918905,  4,141,000009189050004126
933110, 38,142,000009331100038142
933110, 42,142,000009331100042142
933110, 46,142,000009331100046142
933110, 50,142,000009331100050142
940035, 42,144,000009400350042144
942199, 36,144,000009421990036144
942199, 40,144,000009421990040144
942199, 44,144,000009421990044144
940035, 40,144,000009400350040144
940035, 44,144,000009400350044144
912483, 52,144,000009124830052144
912483, 56,144,000009124830056144
912483, 64,144,000009124830064144
905017, 56,142,000009050170056140
915843, 38,143,000009158430038143
915843, 40,143,000009158430040143
915843, 42,143,000009158430042143
915843, 44,143,000009158430044143
915843, 46,143,000009158430046143
938297,  2,142,000009382970002142
938304,  3,142,000009383040003142
918127, 31,142,000009181270031142
911042, 32,143,000009110420032143
911042, 36,143,000009110420036143
911042, 40,143,000009110420040143
911042, 44,143,000009110420044143
977518,  1,141,000009775180001122
977518,  2,141,000009775180002122
977518,  3,141,000009775180003122
977518,  4,141,000009775180004122
977518,  5,141,000009775180005122
976377,  1,141,000009763770001122
976377,  2,141,000009763770002122
976377,  3,141,000009763770003122
976377,  4,141,000009763770004122
976377,  5,141,000009763770005122
976457,  1,141,000009764570001122
976457,  2,141,000009764570002122
976457,  3,141,000009764570003122
976457,  4,141,000009764570004122
976457,  5,141,000009764570005122
975723,  1,143,000009757230001141
950318, 36,143,000009503180036143
950318, 40,143,000009503180040143
950318, 44,143,000009503180044143
950318, 48,143,000009503180048143
915843, 50,143,000009158430050143
914003, 36,133,000009140030036133
914003, 37,133,000009140030037133
914003, 38,133,000009140030038133
914003, 40,133,000009140030040133
923163, 32,143,000009231630032139
923163, 36,143,000009231630036139
923163, 40,143,000009231630040139
923163, 44,143,000009231630044139
923163, 48,143,000009231630048139
946700, 37,143,000009467000037133
946700, 39,143,000009467000039133
946700, 41,143,000009467000041133
946700, 43,143,000009467000043133
946700, 45,143,000009467000045133
946700, 47,143,000009467000047133
936625,  1,141,000009366250001126
936625,  4,141,000009366250004126
975723,  2,143,000009757230002141
975723,  3,143,000009757230003141
975723,  4,143,000009757230004141
975729,  1,143,000009757290001141
975729,  2,143,000009757290002141
975729,  3,143,000009757290003141
957066, 54,143,000009570660054143
939557,  0,143,000009395570000142
936970,  1,141,000009369700001125
936970,  2,141,000009369700002125
936970,  3,141,000009369700003125
946867, 36,144,000009468670036122
946867, 40,144,000009468670040122
946867, 44,144,000009468670044122
975729,  4,143,000009757290004141
928554, 46,143,000009285540046143
928554, 48,143,000009285540048143
928554, 50,143,000009285540050143
928554, 52,143,000009285540052143
928554, 54,143,000009285540054143
928554, 36,143,000009285540036143
928554, 38,143,000009285540038143
928554, 40,143,000009285540040143
928554, 42,143,000009285540042143
928554, 44,143,000009285540044143
946638, 56,142,000009466380056142
946638, 60,142,000009466380060142
946638, 64,142,000009466380064142
946638, 68,142,000009466380068142
906221,  1,142,000009062210001141
906221,  4,142,000009062210004141
911344,  3,141,000009113440003141
903816, 44,143,000009038160044143
903816, 46,143,000009038160046143
903816, 48,143,000009038160048143
903816, 52,143,000009038160052143
903816, 54,143,000009038160054143
978353,  1,141,000009783530001126
918494, 40,141,000009184940040141
918494, 42,141,000009184940042141
918494, 44,141,000009184940044141
918494, 46,141,000009184940046141
918494, 48,141,000009184940048141
918494, 50,141,000009184940050141
918494, 36,141,000009184940036141
918494, 38,141,000009184940038141
918494, 52,141,000009184940052141
918494, 54,141,000009184940054141
919559,  1,141,000009195590001122
919559,  2,141,000009195590002122
919559,  3,141,000009195590003122
919559,  4,141,000009195590004122
919559,  5,141,000009195590005122
928064, 75,143,000009280640075143
928064, 80,143,000009280640080143
928064, 85,143,000009280640085143
928064, 90,143,000009280640090143
936771, 39,143,000009367710039143
936771, 41,143,000009367710041143
936771, 43,143,000009367710043143
928064, 95,143,000009280640095143
928064,100,143,000009280640100143
928064,105,143,000009280640105143
936771, 45,143,000009367710045143
936771, 47,143,000009367710047143
936771, 49,143,000009367710049143
934275, 56,144,000009342750056144
931048, 56,144,000009310480056144
931048, 36,144,000009310480036144
931048, 40,144,000009310480040144
931048, 44,144,000009310480044144
931048, 48,144,000009310480048144
931048, 52,144,000009310480052144
903000, 36,141,000009030000036139
943278, 36,144,000009432780036144
943278, 40,144,000009432780040144
943278, 44,144,000009432780044144
943278, 48,144,000009432780048144
943278, 52,144,000009432780052144
903000, 42,141,000009030000042139
903000, 46,141,000009030000046139
903000, 50,141,000009030000050139
903000, 54,141,000009030000054139
903000, 38,141,000009030000038139
952799, 36,143,000009527990036143
952799, 40,143,000009527990040143
903000, 52,141,000009030000052139
903000, 40,141,000009030000040139
903000, 44,141,000009030000044139
903000, 48,141,000009030000048139
909553, 32,143,000009095530032143
909553, 36,143,000009095530036143
909553, 40,143,000009095530040143
909553, 44,143,000009095530044143
946867, 32,144,000009468670032124
946867, 48,144,000009468670048124
972334,  2,141,000009723340002141
972334,  4,141,000009723340004141
972334,  1,141,000009723340001141
972340,  1,141,000009723400001141
972340,  4,141,000009723400004141
947766, 52,144,000009477660052144
951095, 42,143,000009510950042141
951095, 46,143,000009510950046141
951095, 50,143,000009510950050141
941794, 34,142,000009417940034142
941794, 36,142,000009417940036142
941794, 38,142,000009417940038142
941794, 40,142,000009417940040142
941794, 42,142,000009417940042142
941794, 44,142,000009417940044142
941794, 46,142,000009417940046142
941794, 48,142,000009417940048142
941794, 50,142,000009417940050142
951095, 52,143,000009510950052141
951095, 54,143,000009510950054141
937887, 38,144,000009378870038144
937887, 40,144,000009378870040144
937887, 42,144,000009378870042144
937887, 44,144,000009378870044144
937887, 46,144,000009378870046144
928438, 48,143,000009284380048143
928411,  1,141,000009284110001122
928411,  2,141,000009284110002122
928411,  3,141,000009284110003122
928411,  5,141,000009284110005122
918363,  0,144,000009183630000142
933375, 52,143,000009333750052143
944337, 56,144,000009443370056144
910788, 56,143,000009107880056143
910788, 60,143,000009107880060143
910788, 64,143,000009107880064143
910788, 68,143,000009107880068143
953271,  0,144,000009532710000132
951095, 38,143,000009510950038141
935515, 32,143,000009355150032141
935515, 36,143,000009355150036141
935515, 40,143,000009355150040141
935515, 44,143,000009355150044141
935515, 48,143,000009355150048141
958176, 56,143,000009581760056141
971003,  1,141,000009710030001130
971003,  4,141,000009710030004130
926892,  1,142,000009268920001142
926892,  2,142,000009268920002142
926892,  4,142,000009268920004142
926897,  1,142,000009268970001142
926897,  2,142,000009268970002142
926897,  4,142,000009268970004142
935227,  2,144,000009352270002142
935227,  3,144,000009352270003142
967536, 37,136,000009675360037130
922063, 56,143,000009220630056143
917574,  4,142,000009175740004142
917574,  2,142,000009175740002142
943127, 75,144,000009431270075144
943127, 80,144,000009431270080144
943127, 85,144,000009431270085144
943127, 90,144,000009431270090144
943127, 95,144,000009431270095144
943127,100,144,000009431270100144
943127,105,144,000009431270105144
945993, 32,143,000009459930032130
945993, 36,143,000009459930036130
945993, 40,143,000009459930040130
945993, 44,143,000009459930044130
945993, 48,143,000009459930048130
945993, 52,143,000009459930052130
914923,  3,142,000009149230003142
914923,  4,142,000009149230004142
906574,  2,141,000009065740002130
906574,  3,141,000009065740003130
906574,  6,141,000009065740006130
915843, 36,143,000009158430036143
945650, 52,142,000009456500052142
912977, 48,143,000009129770048136
912977, 50,143,000009129770050136
912977, 52,143,000009129770052136
912977, 54,143,000009129770054136
912977, 56,143,000009129770056136
939254, 52,143,000009392540052143
939254, 56,143,000009392540056143
972654,  1,141,000009726540001131
972654,  2,141,000009726540002131
972654,  3,141,000009726540003131
972654,  4,141,000009726540004131
926863,  4,143,000009268630004142
926863,  5,143,000009268630005142
943882, 75,144,000009438820075142
943882, 80,144,000009438820080142
943882, 85,144,000009438820085142
943882, 90,144,000009438820090142
943882, 95,144,000009438820095142
950957, 32,142,000009509570032142
950957, 36,142,000009509570036142
950957, 40,142,000009509570040142
950957, 44,142,000009509570044142
950957, 48,142,000009509570048142
950957, 52,142,000009509570052142
938944, 70,142,000009389440070142
938944, 75,142,000009389440075142
938944, 80,142,000009389440080142
938944, 85,142,000009389440085142
938944, 90,142,000009389440090142
938944, 95,142,000009389440095142
938944,100,142,000009389440100142
908968, 38,143,000009089680038143
908968, 40,143,000009089680040143
908968, 42,143,000009089680042143
908968, 44,143,000009089680044143
908968, 46,143,000009089680046143
951842,100,144,000009518420100144
951842,110,144,000009518420110144
951842,120,144,000009518420120144
939945,  3,144,000009399450003144
939945,  4,144,000009399450004144
958854,  0,144,000009588540000134
975427, 38,142,000009754270038134
975427, 40,142,000009754270040134
975427, 42,142,000009754270042134
975427, 44,142,000009754270044134
975427, 46,142,000009754270046134
975427, 48,142,000009754270048134
975427, 50,142,000009754270050134
975427, 52,142,000009754270052134
975427, 54,142,000009754270054134
937292, 38,143,000009372920038143
937292, 42,143,000009372920042143
937292, 46,143,000009372920046143
937292, 50,143,000009372920050143
937292, 54,143,000009372920054143
950429, 60,144,000009504290060142
950429, 64,144,000009504290064142
914606, 75,141,000009146060075141
914606, 80,141,000009146060080141
914606, 85,141,000009146060085141
914606, 90,141,000009146060090141
914606, 95,141,000009146060095141
908968, 50,143,000009089680050143
908968, 52,143,000009089680052143
908968, 48,143,000009089680048143
908968, 54,143,000009089680054143
954269, 38,142,000009542690038142
954269, 42,142,000009542690042142
954269, 46,142,000009542690046142
954269, 50,142,000009542690050142
954269, 52,142,000009542690052142
954269, 54,142,000009542690054142
939254, 36,143,000009392540036143
939254, 40,143,000009392540040143
939254, 44,143,000009392540044143
939254, 48,143,000009392540048143
931158, 36,142,000009311580036142
931158, 38,142,000009311580038142
931158, 40,142,000009311580040142
931158, 42,142,000009311580042142
931158, 44,142,000009311580044142
931158, 46,142,000009311580046142
931158, 50,142,000009311580050142
907823, 95,143,000009078230095141
947383,116,144,000009473830116144
947383,140,144,000009473830140144
947383,152,144,000009473830152144
947383,164,144,000009473830164144
908266, 38,142,000009082660038137
908266, 50,142,000009082660050137
908266, 46,142,000009082660046137
908266, 42,142,000009082660042137
934564,  1,141,000009345640001137
951999, 42,142,000009519990042142
951999, 46,142,000009519990046142
951999, 50,142,000009519990050142
951999, 52,142,000009519990052142
924622, 52,143,000009246220052143
924622, 56,143,000009246220056143
939688, 38,143,000009396880038143
939688, 42,143,000009396880042143
939688, 46,143,000009396880046143
939688, 50,143,000009396880050143
939688, 52,143,000009396880052143
939688, 54,143,000009396880054143
939688, 56,143,000009396880056143
939699, 38,143,000009396990038143
939699, 40,143,000009396990040143
939699, 42,143,000009396990042143
939699, 46,143,000009396990046143
939699, 50,143,000009396990050143
939699, 54,143,000009396990054143
950737, 34,143,000009507370034143
950737, 38,143,000009507370038143
950737, 42,143,000009507370042143
950737, 46,143,000009507370046143
950737, 50,143,000009507370050143
908334, 38,143,000009083340038143
908334, 42,143,000009083340042143
958337,  1,143,000009583370001143
958337,  3,143,000009583370003143
958337,  4,143,000009583370004143
958337,  5,143,000009583370005143
958337,  6,143,000009583370006143
958350,  1,143,000009583500001143
958350,  2,143,000009583500002143
958350,  3,143,000009583500003143
958350,  5,143,000009583500005143
958350,  6,143,000009583500006143
908334, 46,143,000009083340046143
908334, 50,143,000009083340050143
908334, 54,143,000009083340054143
924727, 38,143,000009247270038143
924727, 42,143,000009247270042143
924727, 46,143,000009247270046143
924727, 50,143,000009247270050143
924727, 52,143,000009247270052143
924727, 54,143,000009247270054143
924727, 56,143,000009247270056143
932995, 37,143,000009329950037141
932995, 39,143,000009329950039141
932995, 41,143,000009329950041141
916170, 42,143,000009161700042141
916170, 44,143,000009161700044141
916170, 46,143,000009161700046141
916170, 48,143,000009161700048141
916170, 38,143,000009161700038141
916170, 40,143,000009161700040141
922626, 36,143,000009226260036143
922626, 40,143,000009226260040143
922626, 44,143,000009226260044143
922626, 48,143,000009226260048143
922626, 32,143,000009226260032143
950318, 52,143,000009503180052143
959336, 42,143,000009593360042143
959336, 46,143,000009593360046143
959336, 48,143,000009593360048143
911013, 38,143,000009110130038141
911013, 42,143,000009110130042141
911013, 46,143,000009110130046141
911013, 50,143,000009110130050141
911013, 52,143,000009110130052141
911013, 54,143,000009110130054141
963672, 38,143,000009636720038141
963672, 42,143,000009636720042141
963672, 46,143,000009636720046141
963672, 50,143,000009636720050141
934157, 48,139,000009341570048137
933192, 48,143,000009331920048141
933192, 52,143,000009331920052141
933192, 56,143,000009331920056141
933192, 60,143,000009331920060141
933192, 36,143,000009331920036141
933192, 40,143,000009331920040141
933192, 44,143,000009331920044141
937289, 37,143,000009372890037143
937289, 38,143,000009372890038143
915276, 40,143,000009152760040143
915276, 42,143,000009152760042143
915276, 46,143,000009152760046143
915276, 50,143,000009152760050143
943490, 34,144,000009434900034138
943490, 38,144,000009434900038138
943490, 42,144,000009434900042138
943490, 46,144,000009434900046138
943490, 50,144,000009434900050138
915828,  5,141,000009158280005138
936655,128,144,000009366550128138
936655,140,144,000009366550140138
936655,152,144,000009366550152138
936655,164,144,000009366550164138
936655,176,144,000009366550176138
930731, 34,141,000009307310034141
930731, 38,141,000009307310038141
930731, 42,141,000009307310042141
930731, 46,141,000009307310046141
939397, 75,143,000009393970075138
939397, 80,143,000009393970080138
939397, 85,143,000009393970085138
939397, 90,143,000009393970090138
939397, 95,143,000009393970095138
939397,100,143,000009393970100138
939397,105,143,000009393970105138
918602,  3,141,000009186020003138
918609,  2,141,000009186090002138
948219,  4,138,000009482190004138
906583, 36,143,000009065830036141
906583, 40,143,000009065830040141
906583, 44,143,000009065830044141
906583, 48,143,000009065830048141
906583, 52,143,000009065830052141
923890, 50,143,000009238900050143
923890, 54,143,000009238900054143
923890, 56,143,000009238900056143
923890, 58,143,000009238900058143
923890, 60,143,000009238900060143
923890, 62,143,000009238900062143
923890, 64,143,000009238900064143
923998, 50,143,000009239980050143
923998, 54,143,000009239980054143
923509, 34,143,000009235090034143
915843, 54,143,000009158430054143
923998, 58,143,000009239980058143
923998, 60,143,000009239980060143
923998, 62,143,000009239980062143
923998, 64,143,000009239980064143
923998, 66,143,000009239980066143
928438, 44,143,000009284380044143
926578, 46,143,000009265780046143
937470,  1,143,000009374700001139
937470,  2,143,000009374700002139
937470,  3,143,000009374700003139
937470,  4,143,000009374700004139
937470,  5,143,000009374700005139
961219, 36,143,000009612190036139
961219, 40,143,000009612190040139
933375, 56,143,000009333750056143
909542, 44,143,000009095420044139
909542, 48,143,000009095420048139
909542, 52,143,000009095420052139
909542, 56,143,000009095420056139
909542, 60,143,000009095420060139
909542, 64,143,000009095420064139
909542, 68,143,000009095420068139
905805, 32,143,000009058050032143
917547, 38,143,000009175470038143
917547, 40,143,000009175470040143
917547, 52,143,000009175470052143
917547, 54,143,000009175470054143
917547, 42,143,000009175470042143
917547, 44,143,000009175470044143
917547, 46,143,000009175470046143
917547, 48,143,000009175470048143
917547, 50,143,000009175470050143
917547, 36,143,000009175470036143
909513, 48,143,000009095130048140
913820, 42,143,000009138200042143
913820, 46,143,000009138200046143
913820, 50,143,000009138200050143
913820, 52,143,000009138200052143
913820, 54,143,000009138200054143
913820, 56,143,000009138200056143
933736, 70,143,000009337360070143
933736, 75,143,000009337360075143
933736, 80,143,000009337360080143
933736, 85,143,000009337360085143
933736, 90,143,000009337360090143
933736, 95,143,000009337360095143
933736,100,143,000009337360100143
928267, 48,143,000009282670048143
928267, 50,143,000009282670050143
928267, 52,143,000009282670052143
928267, 54,143,000009282670054143
928267, 56,143,000009282670056143
928267, 58,143,000009282670058143
928267, 62,143,000009282670062143
928267, 64,143,000009282670064143
928267, 66,143,000009282670066143
913820, 38,143,000009138200038143
918737, 36,143,000009187370036143
918737, 40,143,000009187370040143
918737, 44,143,000009187370044143
920593, 38,143,000009205930038143
920593, 42,143,000009205930042143
920593, 46,143,000009205930046143
920593, 50,143,000009205930050143
920593, 52,143,000009205930052143
920593, 56,143,000009205930056143
919162,  2,143,000009191620002143
919162,  3,143,000009191620003143
919162,  4,143,000009191620004143
938316, 39,144,000009383160039144
938316, 41,144,000009383160041144
938316, 43,144,000009383160043144
938316, 45,144,000009383160045144
938316, 47,144,000009383160047144
938316, 49,144,000009383160049144
933771,  1,144,000009337710001140
933771,  2,144,000009337710002140
933771,  3,144,000009337710003140
933771,  4,144,000009337710004140
904377,  2,142,000009043770002140
904377,  4,142,000009043770004140
904377,  5,142,000009043770005140
911425,  1,141,000009114250001141
911425,  2,141,000009114250002141
911425,  3,141,000009114250003141
911425,  4,141,000009114250004141
979645,  1,141,000009796450001141
979645,  2,141,000009796450002141
979645,  3,141,000009796450003141
971242,  2,141,000009712420002141
971242,  3,141,000009712420003141
971640,  4,141,000009716400004141
975576, 38,141,000009755760038141
975576, 42,141,000009755760042141
975576, 46,141,000009755760046141
975576, 50,141,000009755760050141
975576, 52,141,000009755760052141
975576, 54,141,000009755760054141
973735, 75,141,000009737350075141
973735, 80,141,000009737350080141
973735, 85,141,000009737350085141
973735, 90,141,000009737350090141
973735, 95,141,000009737350095141
973735,100,141,000009737350100141
973735,105,141,000009737350105141
973735,110,141,000009737350110141
978008, 34,141,000009780080034141
978008, 36,141,000009780080036141
978008, 38,141,000009780080038141
978008, 40,141,000009780080040141
978008, 42,141,000009780080042141
978008, 44,141,000009780080044141
978008, 46,141,000009780080046141
978008, 48,141,000009780080048141
978008, 50,141,000009780080050141
978008, 52,141,000009780080052141
928824, 48,143,000009288240048141
928824, 50,143,000009288240050141
928824, 52,143,000009288240052141
928824, 54,143,000009288240054141
928824, 56,143,000009288240056141
928824, 58,143,000009288240058141
928824, 60,143,000009288240060141
928824, 62,143,000009288240062141
928824, 64,143,000009288240064141
928824, 66,143,000009288240066141
978546, 36,143,000009785460036141
978546, 38,143,000009785460038141
978546, 40,143,000009785460040141
978546, 42,143,000009785460042141
978546, 44,143,000009785460044141
978546, 46,143,000009785460046141
978546, 48,143,000009785460048141
978546, 50,143,000009785460050141
978546, 52,143,000009785460052141
904555,  1,142,000009045550001141
904555,  2,142,000009045550002141
904555,  3,142,000009045550003141
904555,  4,142,000009045550004141
904677,  1,142,000009046770001141
904677,  2,142,000009046770002141
904677,  3,142,000009046770003141
904677,  4,142,000009046770004141
971722,  2,141,000009717220002141
921045, 34,141,000009210450034141
921045, 38,141,000009210450038141
921045, 42,141,000009210450042141
921045, 46,141,000009210450046141
921045, 50,141,000009210450050141
921045, 52,141,000009210450052141
925611, 70,141,000009256110070141
925611, 75,141,000009256110075141
925611, 80,141,000009256110080141
925611, 85,141,000009256110085141
925611, 90,141,000009256110090141
925611, 95,141,000009256110095141
922990, 70,141,000009229900070141
922990, 75,141,000009229900075141
922990, 80,141,000009229900080141
922990, 85,141,000009229900085141
922990, 90,141,000009229900090141
922990, 95,141,000009229900095141
935882, 32,143,000009358820032141
935882, 36,143,000009358820036141
935882, 40,143,000009358820040141
935882, 44,143,000009358820044141
935882, 48,143,000009358820048141
938390, 38,144,000009383900038142
938390, 40,144,000009383900040142
938390, 42,144,000009383900042142
938390, 44,144,000009383900044142
938390, 46,144,000009383900046142
938390, 48,144,000009383900048142
938390, 50,144,000009383900050142
938390, 52,144,000009383900052142
938390, 54,144,000009383900054142
938390, 56,144,000009383900056142
934994, 32,143,000009349940032141
934994, 36,143,000009349940036141
934994, 40,143,000009349940040141
934994, 44,143,000009349940044141
934994, 52,143,000009349940052141
934994, 56,143,000009349940056141
907848, 32,143,000009078480032141
907848, 34,143,000009078480034141
907848, 38,143,000009078480038141
907848, 42,143,000009078480042141
907848, 46,143,000009078480046141
